-------------------------------------------------------------------------------
Test set: com.is.videoteka.VideotekaApplicationTests
-------------------------------------------------------------------------------
Tests run: 1, Failures: 0, Errors: 0, Skipped: 0, Time elapsed: 12.722 s - in com.is.videoteka.VideotekaApplicationTests
